{
        "Products":[
            {
               "id":1,
               "title":"Sofa",
                "uri":"https://www.royaloakindia.com/uploads/ROYIND-royaloak-miami-sofa-v2-lifestyle59.jpg"
            },
            {
                "id":2,
                "title":"King size bed",
                 "uri":"https://5.imimg.com/data5/BL/XF/MY-19365559/king-size-double-bed-with-storage-500x500.jpg"
             },
             {
                "id":3,
                "title":"Dining Table",
                 "uri":"https://encrypted-tbn0.gstatic.com/images?q=tbn:ANd9GcQ8G8k-1jHUZ4XA3w836Fkah8Du4r5x_--JLQ&usqp=CAU"
             },
             {
                "id":4,
                "title":"Kicthen wooden work",
                 "uri":"https://hips.hearstapps.com/hmg-prod.s3.amazonaws.com/images/small-kitchen-1572367025.png"
             },
             {
                "id":5,
                "title":"Sofa",
                "uri":"https://www.royaloakindia.com/uploads/ROYIND-royaloak-miami-sofa-v2-lifestyle59.jpg"
             },
             {
                "id":6,
                "title":"Dining Table",
                "uri":"https://encrypted-tbn0.gstatic.com/images?q=tbn:ANd9GcQ8G8k-1jHUZ4XA3w836Fkah8Du4r5x_--JLQ&usqp=CAU"
             }
        ]
    
}