{
    "shopByRoom":[

       {
          "id": 1,
          "roomType": "3 Seater Sofa",
          "uri":"https://www.royaloakindia.com/uploads/ROYIND-royaloak-miami-sofa-v2-lifestyle59.jpg"
        },
        {
          "id": 2,
          "roomType": "King Sized Bed",
          "uri": "https://cdn.shopclues.com/images/thumbnails/26061/320/320/11444578707.jpg"
        },
      
        {
          "id": 3,
          "roomType": "Dining Table",
          "uri": "https://i.pinimg.com/originals/3f/5d/e2/3f5de289a1657438e7fed22dab104018.jpg"

        },
      
          {
            "id": 4,
            "roomType": "3 Seater Sofa",
            "uri":"https://www.royaloakindia.com/uploads/ROYIND-royaloak-miami-sofa-v2-lifestyle59.jpg"
          },
          {
            "id": 5,
            "roomType": "King Sized Bed",
            "uri": "https://cdn.shopclues.com/images/thumbnails/26061/320/320/11444578707.jpg"
          },
        
          {
            "id": 6,
            "roomType": "Dining Table",
            "uri": "https://i.pinimg.com/originals/3f/5d/e2/3f5de289a1657438e7fed22dab104018.jpg"
  
          }
      ]
      
}